// Jest Snapshot v1, https://goo.gl/fbAQLP

exports[`<Page /> it matches the snapshot 1`] = `
<Fragment>
  <WithStyles(ForwardRef(Typography))
    variant="h2"
  >
    Accounts
  </WithStyles(ForwardRef(Typography))>
  <withRouter(Connect(AccountList)) />
</Fragment>
`;
